<svg xmlns="http://www.w3.org/2000/svg"
     viewBox="0 0 44 39">
  <path id="Path"
    vector-effect="non-scaling-stroke"
        d="M 3.82,32.45
           C 11.55,31.55 14.00,29.00 13.91,28.91
             13.91,28.91 9.00,27.55 7.27,23.18
             7.27,23.18 10.18,23.09 10.18,23.09
             10.18,23.09 6.18,22.36 4.36,15.45
             4.36,15.45 7.36,16.09 7.36,16.09
             7.36,16.09 2.36,11.27 5.64,5.55
             7.82,9.18 17.00,13.45 22.00,13.18
             21.55,7.18 27.48,-0.22 36.64,6.18
             36.64,6.18 41.00,4.09 41.00,4.09
             41.00,4.09 38.64,7.91 38.64,7.91
             38.64,7.91 41.82,7.09 41.82,7.09
             41.82,7.09 38.36,10.73 38.36,10.73
             38.09,28.09 20.27,42.91 3.82,32.45 Z" />
</svg>
