<svg xmlns="http://www.w3.org/2000/svg" width="75" height="50" version="1.1">
   <circle cx="25" cy="25" r="10"/>
   <path d="M 25 15 v -15"/>
   <path d="M 25 35 v 15"/>
   <path d="M 35 25 h 40"/>
</svg>